Решение упражнений из книги R Science
…
Пустое окно построения. Функция ggplot() из пакета ggplot2 только содаёт область построения, функциями мы производим наполнение области построения. Больше инфы смотри в подсказке https://github.com/rstudio/cheatsheets/blob/master/data-visualization-2.1.pdf .

2.1.2.2 Упражнение 3.2.2

How many rows are in mpg? How many columns?

Чтобы проверить “строение” фрейма данных mpg,можно воспользоваться двумя способами. Var1:

ggplot2::mpg

## # A tibble: 234 x 11
##    manufacturer model displ  year   cyl trans drv     cty   hwy fl    cla…
##    <chr>        <chr> <dbl> <int> <int> <chr> <chr> <int> <int> <chr> <ch>
##  1 audi         a4      1.8  1999     4 auto… f        18    29 p     com…
##  2 audi         a4      1.8  1999     4 manu… f        21    29 p     com…
##  3 audi         a4      2    2008     4 manu… f        20    31 p     com…
##  4 audi         a4      2    2008     4 auto… f        21    30 p     com…
##  5 audi         a4      2.8  1999     6 auto… f        16    26 p     com…
##  6 audi         a4      2.8  1999     6 manu… f        18    26 p     com…
##  7 audi         a4      3.1  2008     6 auto… f        18    27 p     com…
##  8 audi         a4 q…   1.8  1999     4 manu… 4        18    26 p     com…
##  9 audi         a4 q…   1.8  1999     4 auto… 4        16    25 p     com…
## 10 audi         a4 q…   2    2008     4 manu… 4        20    28 p     com…
## # ... with 224 more rows
…
Все глаголы подчиняются одному и тому же синтаксису

Первый аргумент \(-\) это фрейм данных

Последующие аргументы описывают действия, которые должны быть выполнены по отношению к фрейму данных.

Результат \(-\) это новый фрейм данных

2.3.2 Фильтрация строк с помощью функции filter()

Функция filter() позволяет что бы вы думали? позволяет фильтровать! Первым аргументом указываем фрейм данных, последующие аргументы, это параметры (столбцы) которые мы желаем отфильтровать через операторы сравнения.

filter(flights, month == 1, day != 1)

## # A tibble: 26,162 x 19
##     year month   day dep_time sched_dep_time dep_delay arr_time
##    <int> <int> <int>    <int>          <int>     <dbl>    <int>
##  1  2013     1     2       42           2359        43      518
##  2  2013     1     2      126           2250       156      233
##  3  2013     1     2      458            500        -2      703
##  4  2013     1     2      512            515        -3      809
##  5  2013     1     2      535            540        -5      831
##  6  2013     1     2      536            529         7      840
##  7  2013     1     2      539            545        -6      959
##  8  2013     1     2      554            600        -6      845
##  9  2013     1     2      554            600        -6      841
## 10  2013     1     2      554            600        -6      909
## # ... with 26,152 more rows, and 12 more variables: sched_arr_time <int>,
## #   arr_delay <dbl>, carrier <chr>, flight <int>, tailnum <chr>,
## #   origin <chr>, dest <chr>, air_time <dbl>, distance <dbl>, hour <dbl>,
## #   minute <dbl>, time_hour <dttm>

Функция filter(), как и многие другие расширения пакета dplyr, не изменяют исходных данных. Желаемый фильтр нужно присвоить в новую переменную

jan1 <- filter(flights, month == 1, day == 1)

Если нужно выполнить присвоение и вывод на экран, нужно обнять выражение скобками.

(jan1 <- filter(flights, month == 1, day == 1))

## # A tibble: 842 x 19
##     year month   day dep_time sched_dep_time dep_delay arr_time
##    <int> <int> <int>    <int>          <int>     <dbl>    <int>
##  1  2013     1     1      517            515         2      830
##  2  2013     1     1      533            529         4      850
##  3  2013     1     1      542            540         2      923
##  4  2013     1     1      544            545        -1     1004
##  5  2013     1     1      554            600        -6      812
##  6  2013     1     1      554            558        -4      740
##  7  2013     1     1      555            600        -5      913
##  8  2013     1     1      557            600        -3      709
##  9  2013     1     1      557            600        -3      838
## 10  2013     1     1      558            600        -2      753
## # ... with 832 more rows, and 12 more variables: sched_arr_time <int>,
## #   arr_delay <dbl>, carrier <chr>, flight <int>, tailnum <chr>,
## #   origin <chr>, dest <chr>, air_time <dbl>, distance <dbl>, hour <dbl>,
## #   minute <dbl>, time_hour <dttm>
…
alt text

Что следует помнить. Добавляя булевы операторы в функцию filter() необходимо помнить, что сравнивать нужно программно, а не так как это звучит лексически. То есть, если мы хотим все авиарейсы отправленные в декабре и ноябре, нужно писать так.

(filter(flights, month == 11 | month == 12))

## # A tibble: 55,403 x 19
##     year month   day dep_time sched_dep_time dep_delay arr_time
##    <int> <int> <int>    <int>          <int>     <dbl>    <int>
##  1  2013    11     1        5           2359         6      352
##  2  2013    11     1       35           2250       105      123
##  3  2013    11     1      455            500        -5      641
##  4  2013    11     1      539            545        -6      856
##  5  2013    11     1      542            545        -3      831
##  6  2013    11     1      549            600       -11      912
##  7  2013    11     1      550            600       -10      705
##  8  2013    11     1      554            600        -6      659
##  9  2013    11     1      554            600        -6      826
## 10  2013    11     1      554            600        -6      749
## # ... with 55,393 more rows, and 12 more variables: sched_arr_time <int>,
## #   arr_delay <dbl>, carrier <chr>, flight <int>, tailnum <chr>,
## #   origin <chr>, dest <chr>, air_time <dbl>, distance <dbl>, hour <dbl>,
## #   minute <dbl>, time_hour <dttm>

Что дословно произносится как “отфильтровать все полёты из набора данных flights, вылетавших в месяце ноябре или в месяце декабре”. Можно следовать лексическому соответствию, но для этого нужно использовать оператор %in%

(filter(flights, month %in% c(11, 12)))

## # A tibble: 55,403 x 19
##     year month   day dep_time sched_dep_time dep_delay arr_time
##    <int> <int> <int>    <int>          <int>     <dbl>    <int>
##  1  2013    11     1        5           2359         6      352
##  2  2013    11     1       35           2250       105      123
##  3  2013    11     1      455            500        -5      641
##  4  2013    11     1      539            545        -6      856
##  5  2013    11     1      542            545        -3      831
##  6  2013    11     1      549            600       -11      912
##  7  2013    11     1      550            600       -10      705
##  8  2013    11     1      554            600        -6      659
##  9  2013    11     1      554            600        -6      826
## 10  2013    11     1      554            600        -6      749
## # ... with 55,393 more rows, and 12 more variables: sched_arr_time <int>,
## #   arr_delay <dbl>, carrier <chr>, flight <int>, tailnum <chr>,
## #   origin <chr>, dest <chr>, air_time <dbl>, distance <dbl>, hour <dbl>,
## #   minute <dbl>, time_hour <dttm>
…
2.3.2.3 Отсутствующие значения

Функция filter() включает в вывод лишь те строки, для которых условие имеет значение TRUE. FALSE и NA исключаются.

Для того чтобы проверить является ли используемое значением отсутствующим можно использовать функцию is.na()

2.3.2.4 Упражнение 5.2.4.1

Найдите все авиарейсы, которые

а) задержались с прилётом на два и более часа

(arr_delay <- filter(flights, arr_delay >= 120))

## # A tibble: 10,200 x 19
##     year month   day dep_time sched_dep_time dep_delay arr_time
##    <int> <int> <int>    <int>          <int>     <dbl>    <int>
##  1  2013     1     1      811            630       101     1047
##  2  2013     1     1      848           1835       853     1001
##  3  2013     1     1      957            733       144     1056
##  4  2013     1     1     1114            900       134     1447
##  5  2013     1     1     1505           1310       115     1638
##  6  2013     1     1     1525           1340       105     1831
##  7  2013     1     1     1549           1445        64     1912
##  8  2013     1     1     1558           1359       119     1718
##  9  2013     1     1     1732           1630        62     2028
## 10  2013     1     1     1803           1620       103     2008
## # ... with 10,190 more rows, and 12 more variables: sched_arr_time <int>,
## #   arr_delay <dbl>, carrier <chr>, flight <int>, tailnum <chr>,
## #   origin <chr>, dest <chr>, air_time <dbl>, distance <dbl>, hour <dbl>,
## #   minute <dbl>, time_hour <dttm>

б) вылетали в Хьюстон (аэропорты IAH и HOU)

(hou_flight <- filter(flights, dest == "IAH" | dest == "HOU"))

## # A tibble: 9,313 x 19
##     year month   day dep_time sched_dep_time dep_delay arr_time
##    <int> <int> <int>    <int>          <int>     <dbl>    <int>
##  1  2013     1     1      517            515         2      830
##  2  2013     1     1      533            529         4      850
##  3  2013     1     1      623            627        -4      933
##  4  2013     1     1      728            732        -4     1041
##  5  2013     1     1      739            739         0     1104
##  6  2013     1     1      908            908         0     1228
##  7  2013     1     1     1028           1026         2     1350
##  8  2013     1     1     1044           1045        -1     1352
##  9  2013     1     1     1114            900       134     1447
## 10  2013     1     1     1205           1200         5     1503
## # ... with 9,303 more rows, and 12 more variables: sched_arr_time <int>,
## #   arr_delay <dbl>, carrier <chr>, flight <int>, tailnum <chr>,
## #   origin <chr>, dest <chr>, air_time <dbl>, distance <dbl>, hour <dbl>,
## #   minute <dbl>, time_hour <dttm>

в) Обслуживались авиакомпаниями United, American or Delta

Для того чтобы узнать аббревиатуры перевозчиков, смотрим airlanes в хэлпе

Получается: United - это UA, American - AA, Delta - DL. Тогда искомые данные это:

(three_carriers <- filter(flights, carrier %in% c("UA", "AA", "DL")))

## # A tibble: 139,504 x 19
##     year month   day dep_time sched_dep_time dep_delay arr_time
##    <int> <int> <int>    <int>          <int>     <dbl>    <int>
##  1  2013     1     1      517            515         2      830
##  2  2013     1     1      533            529         4      850
##  3  2013     1     1      542            540         2      923
##  4  2013     1     1      554            600        -6      812
##  5  2013     1     1      554            558        -4      740
##  6  2013     1     1      558            600        -2      753
##  7  2013     1     1      558            600        -2      924
##  8  2013     1     1      558            600        -2      923
##  9  2013     1     1      559            600        -1      941
## 10  2013     1     1      559            600        -1      854
## # ... with 139,494 more rows, and 12 more variables: sched_arr_time <int>,
## #   arr_delay <dbl>, carrier <chr>, flight <int>, tailnum <chr>,
## #   origin <chr>, dest <chr>, air_time <dbl>, distance <dbl>, hour <dbl>,
## #   minute <dbl>, time_hour <dttm>

г) Вылетали в летнее время (июль, август, сентябрь). Странное у них летнее время

(sum_flights <- filter(flights, month %in% c(7, 8, 9)))

## # A tibble: 86,326 x 19
##     year month   day dep_time sched_dep_time dep_delay arr_time
##    <int> <int> <int>    <int>          <int>     <dbl>    <int>
##  1  2013     7     1        1           2029       212      236
##  2  2013     7     1        2           2359         3      344
##  3  2013     7     1       29           2245       104      151
##  4  2013     7     1       43           2130       193      322
##  5  2013     7     1       44           2150       174      300
##  6  2013     7     1       46           2051       235      304
##  7  2013     7     1       48           2001       287      308
##  8  2013     7     1       58           2155       183      335
##  9  2013     7     1      100           2146       194      327
## 10  2013     7     1      100           2245       135      337
## # ... with 86,316 more rows, and 12 more variables: sched_arr_time <int>,
## #   arr_delay <dbl>, carrier <chr>, flight <int>, tailnum <chr>,
## #   origin <chr>, dest <chr>, air_time <dbl>, distance <dbl>, hour <dbl>,
## #   minute <dbl>, time_hour <dttm>

д) Прилетали с опозданием более чем на два часа но не задерживались с вылетом

(dep_arr_delay <- filter(flights, arr_delay > 120, dep_delay <= 0))

## # A tibble: 29 x 19
##     year month   day dep_time sched_dep_time dep_delay arr_time
##    <int> <int> <int>    <int>          <int>     <dbl>    <int>
##  1  2013     1    27     1419           1420        -1     1754
##  2  2013    10     7     1350           1350         0     1736
##  3  2013    10     7     1357           1359        -2     1858
##  4  2013    10    16      657            700        -3     1258
##  5  2013    11     1      658            700        -2     1329
##  6  2013     3    18     1844           1847        -3       39
##  7  2013     4    17     1635           1640        -5     2049
##  8  2013     4    18      558            600        -2     1149
##  9  2013     4    18      655            700        -5     1213
## 10  2013     5    22     1827           1830        -3     2217
## # ... with 19 more rows, and 12 more variables: sched_arr_time <int>,
## #   arr_delay <dbl>, carrier <chr>, flight <int>, tailnum <chr>,
## #   origin <chr>, dest <chr>, air_time <dbl>, distance <dbl>, hour <dbl>,
## #   minute <dbl>, time_hour <dttm>

е) Вылетали с задержкое не менее чем на час, но наверстывали более 30 минут во время полёта. Если полёт проходит ровно, то задержка отправления равна задержке прибытия. Или dep_delay - arr_delay == 0. Так как самолёт наверстал в пути, значит разница равна не нулю, она больше 30.

(speedy_flights <- filter(flights, dep_delay >= 60, dep_delay - arr_delay > 30 ))

## # A tibble: 1,844 x 19
##     year month   day dep_time sched_dep_time dep_delay arr_time
##    <int> <int> <int>    <int>          <int>     <dbl>    <int>
##  1  2013     1     1     2205           1720       285       46
##  2  2013     1     1     2326           2130       116      131
##  3  2013     1     3     1503           1221       162     1803
##  4  2013     1     3     1839           1700        99     2056
##  5  2013     1     3     1850           1745        65     2148
##  6  2013     1     3     1941           1759       102     2246
##  7  2013     1     3     1950           1845        65     2228
##  8  2013     1     3     2015           1915        60     2135
##  9  2013     1     3     2257           2000       177       45
## 10  2013     1     4     1917           1700       137     2135
## # ... with 1,834 more rows, and 12 more variables: sched_arr_time <int>,
## #   arr_delay <dbl>, carrier <chr>, flight <int>, tailnum <chr>,
## #   origin <chr>, dest <chr>, air_time <dbl>, distance <dbl>, hour <dbl>,
## #   minute <dbl>, time_hour <dttm>

ж) Вылетали между полуночью и 6 часами утра включительно

(moon <- filter(flights, dep_time == 2400 | dep_time <= 600))

## # A tibble: 9,373 x 19
##     year month   day dep_time sched_dep_time dep_delay arr_time
##    <int> <int> <int>    <int>          <int>     <dbl>    <int>
##  1  2013     1     1      517            515         2      830
##  2  2013     1     1      533            529         4      850
##  3  2013     1     1      542            540         2      923
##  4  2013     1     1      544            545        -1     1004
##  5  2013     1     1      554            600        -6      812
##  6  2013     1     1      554            558        -4      740
##  7  2013     1     1      555            600        -5      913
##  8  2013     1     1      557            600        -3      709
##  9  2013     1     1      557            600        -3      838
## 10  2013     1     1      558            600        -2      753
## # ... with 9,363 more rows, and 12 more variables: sched_arr_time <int>,
## #   arr_delay <dbl>, carrier <chr>, flight <int>, tailnum <chr>,
## #   origin <chr>, dest <chr>, air_time <dbl>, distance <dbl>, hour <dbl>,
## #   minute <dbl>, time_hour <dttm>

2.3.2.5 Упражнение 5.2.4.2

Another useful dplyr filtering helper is between(). What does it do? Can you use it to simplify the code needed to answer the previous challenges?

Из описания в хэлпе, функция between() это короткая запись для >= left & x <= right. Или если быть точным: between(x, left, right). Конечно её гораздо удобнее использовать. Эту функцию можно применить к упражнению г. Сравним:

(sum_flights <- filter(flights, month %in% c(7, 8, 9)))

## # A tibble: 86,326 x 19
##     year month   day dep_time sched_dep_time dep_delay arr_time
##    <int> <int> <int>    <int>          <int>     <dbl>    <int>
##  1  2013     7     1        1           2029       212      236
##  2  2013     7     1        2           2359         3      344
##  3  2013     7     1       29           2245       104      151
##  4  2013     7     1       43           2130       193      322
##  5  2013     7     1       44           2150       174      300
##  6  2013     7     1       46           2051       235      304
##  7  2013     7     1       48           2001       287      308
##  8  2013     7     1       58           2155       183      335
##  9  2013     7     1      100           2146       194      327
## 10  2013     7     1      100           2245       135      337
## # ... with 86,316 more rows, and 12 more variables: sched_arr_time <int>,
## #   arr_delay <dbl>, carrier <chr>, flight <int>, tailnum <chr>,
## #   origin <chr>, dest <chr>, air_time <dbl>, distance <dbl>, hour <dbl>,
## #   minute <dbl>, time_hour <dttm>

(sum_flights <- filter(flights, between(month, 7, 9)))

## # A tibble: 86,326 x 19
##     year month   day dep_time sched_dep_time dep_delay arr_time
##    <int> <int> <int>    <int>          <int>     <dbl>    <int>
##  1  2013     7     1        1           2029       212      236
##  2  2013     7     1        2           2359         3      344
##  3  2013     7     1       29           2245       104      151
##  4  2013     7     1       43           2130       193      322
##  5  2013     7     1       44           2150       174      300
##  6  2013     7     1       46           2051       235      304
##  7  2013     7     1       48           2001       287      308
##  8  2013     7     1       58           2155       183      335
##  9  2013     7     1      100           2146       194      327
## 10  2013     7     1      100           2245       135      337
## # ... with 86,316 more rows, and 12 more variables: sched_arr_time <int>,
## #   arr_delay <dbl>, carrier <chr>, flight <int>, tailnum <chr>,
## #   origin <chr>, dest <chr>, air_time <dbl>, distance <dbl>, hour <dbl>,
## #   minute <dbl>, time_hour <dttm>
…
