Глава 5 Моделирование | Решение упражнений из книги R Science
…
model1 <- function(a, data) {
  a[1] + data$x * a[2]
}

model1(c(7, 1.5), sim1)

##  [1]  8.5  8.5  8.5 10.0 10.0 10.0 11.5 11.5 11.5 13.0 13.0 13.0 14.5 14.5
## [15] 14.5 16.0 16.0 16.0 17.5 17.5 17.5 19.0 19.0 19.0 20.5 20.5 20.5 22.0
## [29] 22.0 22.0

sim1

## # A tibble: 30 x 2
##        x     y
##    <int> <dbl>
##  1     1  4.20
##  2     1  7.51
##  3     1  2.13
##  4     2  8.99
##  5     2 10.2 
##  6     2 11.3 
##  7     3  7.36
##  8     3 10.5 
##  9     3 10.5 
## 10     4 12.4 
## # … with 20 more rows
…
## [1] 2.665212

Теперь используем пакет purrr для того чтобы вычислить это расстояние для всех ранее определённых моделей. Нам нужна вспомогательная функция, поскольку наша функция вычисляющая расстояние лжидает модель в качестве числового вектора с длиной 2

sim1_dist <- function(a1, a2) {
  measure_distance(c(a1, a2), sim1)
}

models <- models %>% 
  mutate(dist = purrr::map2_dbl(a1, a2, sim1_dist))
models

## # A tibble: 250 x 3
##        a1     a2  dist
##     <dbl>  <dbl> <dbl>
##  1  38.5  -0.571 21.3 
##  2  10.8   3.58  15.8 
##  3 -11.4   3.42   9.28
##  4  26.7   2.27  23.8 
##  5  26.8  -1.90  11.6 
##  6  32.7   3.15  34.7 
##  7  -1.18 -0.383 20.2 
##  8  32.1   1.83  26.7 
##  9  -4.41  2.38   7.22
## 10 -10.5  -3.22  46.3 
## # … with 240 more rows
…
